<?xml version="1.0" encoding="utf-8"?>
<!-- Generator: Adobe Illustrator 21.0.2, SVG Export Plug-In . SVG Version: 6.00 Build 0)  -->
<svg version="1.1" id="Layer_1" xmlns="http://www.w3.org/2000/svg" xmlns:xlink="http://www.w3.org/1999/xlink" x="0px" y="0px"
	 width="300px" height="300px" viewBox="0 0 300 300" style="enable-background:new 0 0 300 300;" xml:space="preserve">
<style type="text/css">
	.st0{fill:#0093D8;}
</style>
<path class="st0" d="M150,20.4c34.6,0,67.1,13.5,91.6,37.9c24.5,24.5,37.9,57,37.9,91.6S266,217,241.6,241.5
	c-24.5,24.5-57,37.9-91.6,37.9s-67.1-13.5-91.6-37.9c-24.5-24.5-37.9-57-37.9-91.6S34,82.8,58.4,58.3C82.9,33.9,115.4,20.4,150,20.4
	 M150,10.4C72.9,10.4,10.4,72.9,10.4,150S72.9,289.6,150,289.6S289.6,227.1,289.6,150S227.1,10.4,150,10.4L150,10.4z"/>
<g>
	<path class="st0" d="M188,115.1c0,7.3-2.2,13.5-6.7,18.7c-4.4,5.2-10.9,9-19.3,11.4v0.5c19.6,2.5,29.4,11.7,29.4,27.8
		c0,10.9-4.3,19.5-13,25.8c-8.6,6.3-20.6,9.4-36,9.4c-6.3,0-12.2-0.5-17.5-1.4c-5.4-0.9-11.2-2.6-17.5-5v-26.3
		c5.1,2.6,10.4,4.6,15.7,5.8c5.3,1.3,10.2,1.9,14.7,1.9c7,0,12-1,15.2-2.9c3.2-2,4.8-5,4.8-9.2c0-3.2-0.8-5.7-2.5-7.4
		c-1.7-1.7-4.3-3.1-8-3.9c-3.7-0.9-8.5-1.3-14.5-1.3h-7.2V135h7.4c16.1,0,24.2-4.1,24.2-12.4c0-3.1-1.2-5.4-3.6-6.9
		c-2.4-1.5-5.6-2.2-9.6-2.2c-7.5,0-15.3,2.5-23.3,7.5l-13.2-21.2c6.2-4.3,12.6-7.3,19.1-9.2c6.5-1.8,14-2.7,22.4-2.7
		c12.1,0,21.7,2.4,28.6,7.2C184.5,100,188,106.6,188,115.1z"/>
</g>
</svg>
