<?xml version="1.0" encoding="utf-8"?>
<!-- Generator: Adobe Illustrator 21.0.2, SVG Export Plug-In . SVG Version: 6.00 Build 0)  -->
<svg version="1.1" id="Layer_1" xmlns="http://www.w3.org/2000/svg" xmlns:xlink="http://www.w3.org/1999/xlink" x="0px" y="0px"
	 width="300px" height="400px" viewBox="0 0 300 400" style="enable-background:new 0 0 300 400;" xml:space="preserve">
<style type="text/css">
	.st0{fill:#004081;}
</style>
<path class="st0" d="M150,25.9c34.6,0,67.1,13.5,91.6,37.9c24.5,24.5,37.9,57,37.9,91.6S266,222.5,241.6,247
	c-24.5,24.5-57,37.9-91.6,37.9S82.9,271.4,58.4,247c-24.5-24.5-37.9-57-37.9-91.6S34,88.3,58.4,63.8C82.9,39.4,115.4,25.9,150,25.9
	 M150,15.9c-77.1,0-139.6,62.5-139.6,139.6S72.9,295.1,150,295.1s139.6-62.5,139.6-139.6S227.1,15.9,150,15.9L150,15.9z"/>
<g>
	<circle class="st0" cx="144.9" cy="213.8" r="4.9"/>
	<circle class="st0" cx="130.4" cy="213.8" r="4.9"/>
	<circle class="st0" cx="159.5" cy="213.8" r="4.9"/>
	<path class="st0" d="M246.2,148.1L171,119.5c-2.5-1-5.3,0.3-6.3,2.8s0.3,5.3,2.8,6.3l75.2,28.6c2.6,1,4.3,3.5,4.3,6.2
		c0,3.7-3,6.6-6.6,6.6h-46.8c-2.7,0-4.9,2.2-4.9,4.9s2.2,4.9,4.9,4.9h46.8c9,0,16.4-7.3,16.4-16.4
		C256.7,156.7,252.5,150.5,246.2,148.1z"/>
	<path class="st0" d="M156.7,155.5c-6.3-6.3-17.2-6.3-23.5,0l-14.6,14.6H59.3c-3.7,0-6.6-3-6.6-6.6c0-2.7,1.7-5.2,4.3-6.2l94.6-36.1
		c1.9-0.7,3.1-2.5,3.1-4.5V110c0-4.4,2.4-8.6,6.5-11.6c6.1-4.4,9.1-11.8,7.8-19.2c-1.4-7.8-7.8-14.3-15.6-15.7
		c-5.7-1-11.6,0.5-16,4.2c-4.4,3.7-6.9,9.1-6.9,14.9c0,2.7,2.2,4.9,4.9,4.9c2.7,0,4.9-2.2,4.9-4.9c0-2.9,1.3-5.6,3.5-7.4
		c2.2-1.9,5.1-2.6,8-2.1c3.8,0.7,7.1,3.9,7.8,7.8c0.7,3.8-0.8,7.5-3.9,9.7c-6.7,4.8-10.5,11.9-10.5,19.4v3.3l-91.5,34.9
		c-6.3,2.4-10.5,8.5-10.5,15.3c0,9,7.3,16.4,16.4,16.4h85.7c2.7,0,4.9-2.2,4.9-4.9s-2.2-4.9-4.9-4.9h-12.6l7.7-7.7
		c2.6-2.6,7.1-2.6,9.7,0l18,18c0.9,0.9,1.4,2.2,1.4,3.4v49.4c0,2.7-2.2,4.9-4.9,4.9h-38.9c-2.7,0-4.9-2.2-4.9-4.9v-38.9
		c0-2.7-2.2-4.9-4.9-4.9c-2.7,0-4.9,2.2-4.9,4.9v38.9c0,8,6.5,14.6,14.6,14.6h38.9c8,0,14.6-6.5,14.6-14.6v-49.4
		c0-3.9-1.5-7.6-4.3-10.3L156.7,155.5z"/>
</g>
<g>
	<path class="st0" d="M79,349.9V366H67v-44.2h14.5c12,0,18,4.4,18,13.1c0,5.1-2.5,9.1-7.5,11.9l12.9,19.3H91.4L82,349.9H79z
		 M79,340.9h2.2c4.2,0,6.3-1.8,6.3-5.5c0-3-2-4.6-6.1-4.6H79V340.9z"/>
	<path class="st0" d="M150.4,343.8c0,7.4-1.8,13.1-5.5,17s-9,5.8-16,5.8c-6.9,0-12.3-1.9-16-5.8c-3.7-3.9-5.6-9.6-5.6-17
		c0-7.4,1.8-13,5.5-16.9c3.7-3.9,9-5.8,16.1-5.8c7,0,12.4,1.9,16,5.8C148.6,330.7,150.4,336.3,150.4,343.8z M119.9,343.8
		c0,8.6,3,12.8,8.9,12.8c3,0,5.3-1,6.7-3.1s2.2-5.3,2.2-9.7c0-4.4-0.7-7.7-2.2-9.8c-1.5-2.1-3.7-3.2-6.6-3.2
		C122.9,330.8,119.9,335.2,119.9,343.8z"/>
	<path class="st0" d="M190.5,335.8c0,4.9-1.5,8.8-4.4,11.5c-2.9,2.7-7.1,4-12.4,4h-3.4V366h-12v-44.2h15.3c5.6,0,9.8,1.2,12.6,3.7
		C189.1,327.8,190.5,331.3,190.5,335.8z M170.3,341.5h2.2c1.8,0,3.2-0.5,4.3-1.5c1.1-1,1.6-2.4,1.6-4.2c0-3-1.7-4.5-5-4.5h-3.1
		V341.5z"/>
	<path class="st0" d="M224.7,366l-2.2-8.3h-14.4l-2.2,8.3h-13.1l14.4-44.4h16l14.6,44.4H224.7z M220,347.9l-1.9-7.3
		c-0.4-1.6-1-3.7-1.6-6.3c-0.6-2.6-1.1-4.4-1.3-5.5c-0.2,1-0.5,2.7-1.1,5.1c-0.5,2.4-1.7,7-3.6,14H220z"/>
</g>
</svg>
